Geospatial Analytics - 1a: Geospatial Data Wrangling with R
…
In practice, it is common to come across aspatial data with two fields that capture the x- and y-coordinates of the data points. Aspatial data can be converted from a tibble data frame into a simple feature data frame for further geospatial analysis.

Importing Aspatial Data as tibble data frame

The code chunk below uses read_csv() function of readr package to import the listings.csv data from Airbnb. The output R object is a tibble data frame called listings.

listings <- read_csv("data/aspatial/listings.csv")

The code chunk below uses list() of Base R instead of glimpse() to examine if the data file has been imported correctly.

list(listings) 

[[1]]
# A tibble: 3,483 × 18
       id name     host_id host_…¹ neigh…² neigh…³ latit…⁴ longi…⁵ room_…⁶ price
    <dbl> <chr>      <dbl> <chr>   <chr>   <chr>     <dbl>   <dbl> <chr>   <dbl>
 1  71609 Villa i…  367042 Belinda East R… Tampin…    1.35    104. Privat…   150
 2  71896 Home in…  367042 Belinda East R… Tampin…    1.35    104. Privat…    80
 3  71903 Home in…  367042 Belinda East R… Tampin…    1.35    104. Privat…    80
 4 275343 Rental … 1439258 Kay     Centra… Bukit …    1.29    104. Privat…    55
 5 275344 Rental … 1439258 Kay     Centra… Bukit …    1.29    104. Privat…    69
 6 289234 Home in…  367042 Belinda East R… Tampin…    1.34    104. Privat…   220
 7 294281 Rental … 1521514 Elizab… Centra… Newton     1.31    104. Privat…    85
 8 324945 Rental … 1439258 Kay     Centra… Bukit …    1.29    104. Privat…    75
 9 330095 Rental … 1439258 Kay     Centra… Bukit …    1.29    104. Privat…    45
10 369141 Place t… 1521514 Elizab… Centra… Newton     1.31    104. Privat…    79
# … with 3,473 more rows, 8 more variables: minimum_nights <dbl>,
#   number_of_reviews <dbl>, last_review <date>, reviews_per_month <dbl>,
#   calculated_host_listings_count <dbl>, availability_365 <dbl>,
#   number_of_reviews_ltm <dbl>, license <chr>, and abbreviated variable names
#   ¹​host_name, ²​neighbourhood_group, ³​neighbourhood, ⁴​latitude, ⁵​longitude,
#   ⁶​room_type
…
